^F:\DONECPP\DONECPP\TESTDONE_OBFN_WORKS.CPP
F:\DONECPP\DONECPP\X64\RELEASE\VC140.PDB
F:\DONECPP\DONECPP\X64\RELEASE\TESTDONE_OBFN_WORKS.OBJ
^F:\DONECPP\DONECPP\DEMO.CPP
F:\DONECPP\DONECPP\X64\RELEASE\VC140.PDB
F:\DONECPP\DONECPP\X64\RELEASE\DEMO.OBJ
